Place,Name,BirthDate,Sex,State,Division,Equipment,BodyweightKg,WeightClassKg,Bench1Kg,Bench2Kg,Bench3Kg,Best3BenchKg,TotalKg,Event
1,Sarah Neville,,F,NS,Sub-Juniors,Raw,75.7,76,75,80,-85,80,80,B
1,Heather Wolfe,,F,NS,Masters 2,Raw,72.9,76,67.5,70,72.5,72.5,72.5,B
1,Riley Worth,,M,NS,Sub-Juniors,Raw,81.6,83,110,120,-125.5,120,120,B
1,Parker Coulter,,M,NS,Sub-Juniors,Raw,108.8,120,92.5,105,112.5,112.5,112.5,B
1,Mike Hogan,,M,NS,Open,Raw,82.45,83,165,177.5,182.5,182.5,182.5,B
1,Matthew Miller,,M,NS,Masters 1,Raw,81.5,83,117.5,122.5,-125,122.5,122.5,B
1,Jimmy Häll,,M,NS,Masters 1,Raw,113.7,120,140,150,-160.5,150,150,B
