Place,Name,Sex,Age,Equipment,Division,BodyweightKg,WeightClassKg,Squat1Kg,Squat2Kg,Squat3Kg,Best3SquatKg,Bench1Kg,Bench2Kg,Bench3Kg,Best3BenchKg,Deadlift1Kg,Deadlift2Kg,Deadlift3Kg,Best3DeadliftKg,TotalKg,Event,BirthDate
1,Piotr Sulecki,M,33,Raw,M_OR_BPU,86.75,90,200,215,227.5,227.5,135,142.5,-150,142.5,210,230,-240,230,600,SBD,
1,Jake Lonsdale,M,28,Raw,M_OR_ABPU,86.85,90,225,240,250,250,135,142.5,-145,142.5,250,262.5,-270,262.5,655,SBD,
2,Peter King #1,M,26,Raw,M_OR_ABPU,86.2,90,200,210,220,220,140,150,-155,150,240,250,260,260,630,SBD,
1,Stuart Ainsley,M,41,Wraps,M_MCR_1_BPU,96.95,100,195,215,220,220,145,-152.5,-152.5,145,-235,235,-250,235,600,SBD,
1,Ryan Bax,M,45,Wraps,M_MCR_2_ABPU,105.7,110,-110,110,120,120,70,75,-80,75,-165,170,180,180,375,SBD,
1,Daniel Routledge,M,27,Wraps,M_OCR_BPU,89.5,90,200,215,230,230,125,130,135,135,237.5,250,262.5,262.5,627.5,SBD,
1,Gareth Dace,M,34,Wraps,M_OCR_BPU,104.3,110,-205,215,-220,215,120,135,-155,135,220,230,245,245,595,SBD,
1,Daniel Adshead,M,28,Wraps,M_OCR_BPU,135.5,140,240,265,285,285,140,160,170,170,240,265,-290,265,720,SBD,
1,Wenliang Li,M,27,Wraps,M_OCR_ABPU,81.05,82.5,-165,165,175,175,115,125,127.5,127.5,205,,,205,507.5,SBD,
2,Rama Ragupathy,M,28,Wraps,M_OCR_ABPU,82.15,82.5,150,160,167.5,167.5,100,107.5,112.5,112.5,210,217.5,227.5,227.5,507.5,SBD,
1,David Eadon,M,33,Wraps,M_OCR_ABPU,88.75,90,230,250,,250,150,167.5,170,170,260,-300,,260,680,SBD,
1,Dilshan Muththettuwage,M,22,Wraps,M_OCR_ABPU,99.45,100,230,232.5,-252.5,232.5,150,-160,-160,150,250,265,287.5,287.5,670,SBD,
2,Chris Morrow,M,36,Wraps,M_OCR_ABPU,98.3,100,220,235,247.5,247.5,135,142.5,-147.5,142.5,220,250,,250,640,SBD,
3,Samuel Mcevoy,M,33,Wraps,M_OCR_ABPU,92.85,100,210,225,-237.5,225,135,142.5,-147.5,142.5,240,250,260,260,627.5,SBD,
4,Mike Radford,M,29,Wraps,M_OCR_ABPU,98.75,100,230,245,260,260,125,,,125,230,,,230,615,SBD,
5,Jason Berrington,M,39,Wraps,M_OCR_ABPU,99.3,100,200,210,-220,210,145,-152.5,-152.5,145,-240,240,-250,240,595,SBD,
1,Nicholas Georgallides,M,32,Wraps,M_OCR_ABPU,109.85,110,-275,275,-290,275,155,165,-167.5,165,290,305,312.5,312.5,752.5,SBD,
2,Robert Hunt #1,M,30,Wraps,M_OCR_ABPU,105.95,110,280,290,-300,290,150,157.5,-162.5,157.5,275,-290,290,290,737.5,SBD,
1,Josh Golding,M,32,Wraps,M_OCR_ABPU,121.45,125,240,260,270,270,155,162.5,-170,162.5,250,270,280,280,712.5,SBD,
1,Mark Ezeabasili,M,29,Wraps,M_OCR_ABPU,132.6,140,220,240,-255,240,140,150,155,155,270,290,-305,290,685,SBD,
1,Aaron Fillery,M,35,Multi-ply,M_OEM_BPU,96.05,100,250,260,270,270,140,150,-160,150,-200,230,260,260,680,SBD,
1,Kurt Beech,M,33,Multi-ply,M_OEM_BPU,109,110,340,360,370,370,120,,,120,280,305,322.5,322.5,812.5,SBD,
2,Jack Doran,M,28,Raw,M_OR_ABPU,81.1,82.5,,,,,112.5,120,122.5,122.5,,,,,122.5,B,
1,Jack Doran,M,28,Raw,M_OR_ABPU,81.1,82.5,,,,,,,,,212.5,232.5,245,245,245,D,
1,Peter Aresu,M,54,Raw,M_MR_3_ABPU,72,75,,,,,100,110,122.5,122.5,,,,,122.5,B,
1,Kavan Donaghy,M,27,Raw,M_OR_ABPU,81.95,82.5,,,,,157.5,165,170,170,,,,,170,B,
1,Maciej Orlowski,M,,Raw,M_OR_ABPU,123.4,125,,,,,180,-200,205,205,,,,,205,B,
1,Richard Evans,M,55,Single-ply,M_MES_4_ABPU,137.1,140,,,,,137.5,147.5,150,150,,,,,150,B,
1,Tom Gee #1,M,39,Multi-ply,M_OEM_ABPU,89.35,90,,,,,,,,,255,272.5,282.5,282.5,282.5,D,
1,Imogen House,F,46,Raw,F_MR_2_ABPU,62.6,67.5,80,82.5,87.5,87.5,40,42.5,45,45,95,100,110,110,242.5,SBD,
1,Sophie Winser,F,25,Raw,F_OR_ABPU,70.65,75,77.5,85,90,90,37.5,42.5,-45,42.5,95,102.5,-105,102.5,235,SBD,
1,Babongile Ndiweni,F,31,Raw,F_OR_ABPU,82,82.5,120,-125,127.5,127.5,62.5,67.5,-70,67.5,125,132.5,-140,132.5,327.5,SBD,
1,Lauren Ashbourne,F,22,Wraps,F_JCR_ABPU,69.7,75,130,137.5,145,145,57.5,62.5,-67.5,62.5,130,140,147.5,147.5,355,SBD,
1,Hannah Mouland,F,21,Wraps,F_JCR_ABPU,117.8,110+,105,112.5,120,120,40,45,50,50,125,132.5,140,140,310,SBD,
1,Maxine Bland,F,41,Wraps,F_MCR_1_ABPU,67.35,67.5,90,97.5,102.5,102.5,50,52.5,-55,52.5,110,115,120,120,275,SBD,
1,Laura Morgan,F,40,Wraps,F_MCR_1_ABPU,70.4,75,95,100,-107.5,100,55,60,-65,60,122.5,130,135,135,295,SBD,
1,Leanne Plank,F,34,Wraps,F_OCR_BPU,67.4,67.5,115,125,132.5,132.5,57.5,62.5,-67.5,62.5,135,147.5,-157.5,147.5,342.5,SBD,
1,Sylwia Pandzierska,F,29,Wraps,F_OCR_ABPU,55.05,56,80,90,-95,90,45,-50,-50,45,110,120,-130,120,255,SBD,
1,Leanne Lightfoot,F,36,Wraps,F_OCR_ABPU,65.35,67.5,-112.5,120,-127.5,120,55,60,-62.5,60,130,145,160,160,340,SBD,
2,Christina Panchal,F,30,Wraps,F_OCR_ABPU,62.95,67.5,100,110,120,120,45,50,52.5,52.5,102.5,110,120,120,292.5,SBD,
3,Lucy Hopwood,F,32,Wraps,F_OCR_ABPU,67.15,67.5,97.5,107.5,110,110,47.5,52.5,-55,52.5,115,125,-135,125,287.5,SBD,
4,Endija,F,27,Wraps,F_OCR_ABPU,65.95,67.5,80,85,-90,85,60,-65,-65,60,125,127.5,-130,127.5,272.5,SBD,
1,Katie Bickle,F,24,Wraps,F_OCR_ABPU,74.1,75,135,142.5,150,150,65,70,-75,70,140,150,160,160,380,SBD,
2,Rachael Burns,F,24,Wraps,F_OCR_ABPU,68.3,75,112.5,117.5,-120,117.5,57.5,62.5,65,65,135,142.5,-147.5,142.5,325,SBD,
1,Sarah Farmer #1,F,33,Wraps,F_OCR_ABPU,79.05,82.5,120,130,-135,130,65,70,72.5,72.5,130,137.5,142.5,142.5,345,SBD,
2,Alexia Frangakis,F,29,Wraps,F_OCR_ABPU,75.7,82.5,80,-90,-90,80,40,45,-50,45,85,95,100,100,225,SBD,
1,Caitlin Hayes #2,F,28,Wraps,F_OCR_ABPU,108.8,110,105,115,-122.5,115,65,-70,70,70,135,145,155,155,340,SBD,
1,Jodie Davies,F,27,Multi-ply,F_OEM_ABPU,50.25,52,150,160,,160,110,-115,,110,125,132.5,140,140,410,SBD,
1,Katie Cornish,F,41,Raw,F_MR_1_ABPU,77.3,82.5,,,,,67.5,-72.5,-72.5,67.5,,,,,67.5,B,
1,Jodie Davies,F,27,Multi-ply,F_OEM_ABPU,50.25,52,,,,,110,-115,,110,,,,,110,B,
1,Katie Cornish,F,41,Raw,F_MR_1_ABPU,77.3,82.5,,,,,,,,,120,132.5,142.5,142.5,142.5,D,
1,Adarsh Kumar,M,19,Raw,M_TR_3_ABPU,84.95,90,140,150,165,165,80,85,-90,85,185,195,205,205,455,SBD,
1,Louis Hughes #2,M,21,Wraps,M_JCR_BPU,82.3,82.5,205,220,230,230,135,142.5,150,150,240,270,285,285,665,SBD,
1,George Purchase,M,20,Wraps,M_JCR_BPU,108.9,110,240,250,260,260,125,132.5,140,140,225,232.5,240,240,640,SBD,
1,Adam Rowley,M,21,Wraps,M_JCR_ABPU,78.7,82.5,155,-162.5,-162.5,155,105,-112.5,115,115,195,202.5,210,210,480,SBD,
1,Thomas Renwick,M,22,Wraps,M_JCR_ABPU,87.8,90,160,170,180,180,117.5,125,132.5,132.5,185,200,220,220,532.5,SBD,
2,Anthony Brent,M,23,Wraps,M_JCR_ABPU,89.45,90,-175,180,-190,180,-122.5,127.5,-132.5,127.5,205,212.5,-220,212.5,520,SBD,
3,Rory Brazendale,M,23,Wraps,M_JCR_ABPU,88.8,90,165,172.5,177.5,177.5,102.5,107.5,112.5,112.5,200,210,217.5,217.5,507.5,SBD,
1,Tom Whitley,M,21,Wraps,M_JCR_ABPU,99.75,100,210,220,227.5,227.5,130,-135,135,135,235,245,-250,245,607.5,SBD,
1,Thomas Bennett #1,M,19,Wraps,M_TCR_3_ABPU,80.7,82.5,235,242.5,250,250,130,135,140,140,230,240,245,245,635,SBD,
1,Haarris Ali,M,21,Raw,M_JR_ABPU,66.05,67.5,,,,,85,90,,90,,,,,90,B,
1,Haarris Ali,M,21,Raw,M_JR_ABPU,66.05,67.5,,,,,,,,,180,190,-200,190,190,D,
